<svg width="11" height="8" viewBox="0 0 11 8" fill="none" xmlns="http://www.w3.org/2000/svg">
<path d="M3.95749 8C3.7343 8 3.51088 7.91396 3.34063 7.74174L0.255581 4.62357C-0.0851937 4.27913 -0.0851937 3.72079 0.255581 3.37635C0.596356 3.03192 1.14877 3.03192 1.48954 3.37635L3.95749 5.8708L9.51048 0.258286C9.85126 -0.0860434 10.4038 -0.0861476 10.7443 0.258286C11.0852 0.60272 11.0852 1.16119 10.7443 1.5055L4.57448 7.74174C4.4041 7.91385 4.18078 8 3.95749 8Z" fill="#006ADE"/>
</svg>
