<svg width="19" height="10" viewBox="0 0 19 10" fill="none" xmlns="http://www.w3.org/2000/svg">
<path d="M0 5C0 4.72386 0.223858 4.5 0.5 4.5H18V5.5H0.5C0.223858 5.5 0 5.27614 0 5Z" fill="#006ADE"/>
<path d="M15 1L18.5 5L15 9" stroke="#006ADE" stroke-linecap="round" stroke-linejoin="round"/>
</svg>
