<svg width="40" height="40" viewBox="0 0 40 40" fill="none" xmlns="http://www.w3.org/2000/svg">
<path fill-rule="evenodd" clip-rule="evenodd" d="M20 39C30.4934 39 39 30.4934 39 20C39 9.50659 30.4934 1 20 1C9.50659 1 1 9.50659 1 20C1 30.4934 9.50659 39 20 39Z" stroke="#D4D4D4"/>
<path d="M25.9531 17.8359L24.7578 14.2734C24.6797 14.0391 24.5391 13.8516 24.3359 13.7109C24.1484 13.5703 23.9297 13.5 23.6797 13.5H20.375V18H25.9766L25.9531 17.8359ZM19.625 13.5H16.3203C16.0703 13.5 15.8438 13.5703 15.6406 13.7109C15.4531 13.8516 15.3203 14.0391 15.2422 14.2734L14.0703 17.8359L14.0234 18H19.625V13.5ZM14 18.75V24.375C14 24.6875 14.1094 24.9531 14.3281 25.1719C14.5469 25.3906 14.8125 25.5 15.125 25.5H24.875C25.1875 25.5 25.4531 25.3906 25.6719 25.1719C25.8906 24.9531 26 24.6875 26 24.375V18.75H14Z" fill="#D4D4D4"/>
</svg>
