<svg preserveAspectRatio="none" width="437" height="42" viewBox="0 0 437 42" fill="none" xmlns="http://www.w3.org/2000/svg">
<!-- <path d="M3 0.5H434C435.381 0.5 436.5 1.61929 436.5 3V39C436.5 40.3807 435.381 41.5 434 41.5H3C1.61929 41.5 0.5 40.3807 0.5 39V3C0.5 1.61929 1.61929 0.5 3 0.5Z" fill="white" stroke="#D4D4D4"/> -->
<line x1="31.5" y1="39" x2="31.5" y2="41" stroke="#D4D4D4"/>
<line x1="44.5" y1="39" x2="44.5" y2="41" stroke="#D4D4D4"/>
<line x1="57.5" y1="39" x2="57.5" y2="41" stroke="#D4D4D4"/>
<line x1="70.5" y1="39" x2="70.5" y2="41" stroke="#D4D4D4"/>
<line x1="83.5" y1="39" x2="83.5" y2="41" stroke="#D4D4D4"/>
<line x1="97.5" y1="39" x2="97.5" y2="41" stroke="#D4D4D4"/>
<line x1="110.5" y1="39" x2="110.5" y2="41" stroke="#D4D4D4"/>
<line x1="123.5" y1="39" x2="123.5" y2="41" stroke="#D4D4D4"/>
<line x1="136.5" y1="39" x2="136.5" y2="41" stroke="#D4D4D4"/>
<line x1="149.5" y1="39" x2="149.5" y2="41" stroke="#D4D4D4"/>
<line x1="162.5" y1="39" x2="162.5" y2="41" stroke="#D4D4D4"/>
<line x1="175.5" y1="39" x2="175.5" y2="41" stroke="#D4D4D4"/>
<line x1="188.5" y1="39" x2="188.5" y2="41" stroke="#D4D4D4"/>
<line x1="201.5" y1="39" x2="201.5" y2="41" stroke="#D4D4D4"/>
<line x1="214.5" y1="39" x2="214.5" y2="41" stroke="#D4D4D4"/>
<line x1="227.5" y1="39" x2="227.5" y2="41" stroke="#D4D4D4"/>
<line x1="240.5" y1="39" x2="240.5" y2="41" stroke="#D4D4D4"/>
<line x1="254.5" y1="39" x2="254.5" y2="41" stroke="#D4D4D4"/>
<line x1="267.5" y1="39" x2="267.5" y2="41" stroke="#D4D4D4"/>
<line x1="280.5" y1="39" x2="280.5" y2="41" stroke="#D4D4D4"/>
<line x1="293.5" y1="39" x2="293.5" y2="41" stroke="#D4D4D4"/>
<line x1="306.5" y1="39" x2="306.5" y2="41" stroke="#D4D4D4"/>
<line x1="319.5" y1="39" x2="319.5" y2="41" stroke="#D4D4D4"/>
<line x1="332.5" y1="39" x2="332.5" y2="41" stroke="#D4D4D4"/>
<line x1="345.5" y1="39" x2="345.5" y2="41" stroke="#D4D4D4"/>
<line x1="358.5" y1="39" x2="358.5" y2="41" stroke="#D4D4D4"/>
<line x1="371.5" y1="39" x2="371.5" y2="41" stroke="#D4D4D4"/>
<line x1="384.5" y1="39" x2="384.5" y2="41" stroke="#D4D4D4"/>
<line x1="397.5" y1="39" x2="397.5" y2="41" stroke="#D4D4D4"/>
<line x1="411.5" y1="39" x2="411.5" y2="41" stroke="#D4D4D4"/>
<line x1="424.5" y1="39" x2="424.5" y2="41" stroke="#D4D4D4"/>
</svg>
