<svg width="15" height="15" viewBox="0 0 15 15" fill="none" xmlns="http://www.w3.org/2000/svg">
<path d="M13.3427 10.7473L11.0867 9.27271C10.8605 9.12944 10.5878 9.07879 10.3252 9.13129C10.0627 9.18379 9.83042 9.3354 9.67675 9.55462C9.15615 10.1835 8.52708 11.2243 6.16267 8.8607C3.79825 6.49706 4.81777 5.84652 5.44684 5.32608C5.66613 5.17246 5.81779 4.94029 5.8703 4.6778C5.92282 4.41531 5.87215 4.14269 5.72883 3.91657L4.25378 1.66135C4.05856 1.37945 3.79825 0.924068 3.19088 1.01081C2.58351 1.09755 1 1.98662 1 3.93826C1 5.88989 2.54012 8.27521 4.64424 10.3786C6.74835 12.4821 9.13446 14 11.065 14C12.9956 14 13.9284 12.2652 13.9934 11.8315C14.0585 11.3978 13.6247 10.9424 13.3427 10.7473Z" stroke="#3B3B3B" stroke-miterlimit="10" stroke-linecap="round" stroke-linejoin="round"/>
</svg>
