<svg width="104" height="208" viewBox="0 0 104 208" fill="none" xmlns="http://www.w3.org/2000/svg">
<path d="M103.371 103.999L-11.6576 207.921L-11.6576 0.076823L103.371 103.999Z" fill="white"/>
</svg>
